(footprint "Kosmo_Jack_Hole"
	(version 20240108)
	(generator "pcbnew")
	(generator_version "8.0")
	(layer "F.Cu")
	(descr "Mounting Hole 6mm")
	(tags "mounting hole 6mm")
	(property "Reference" "REF**"
		(at 0 -11 0)
		(layer "F.SilkS")
		(hide yes)
		(uuid "261a4bf6-1a80-4d19-ae31-7fe804ec12bf")
		(effects
			(font
				(size 1 1)
				(thickness 0.15)
			)
		)
	)
	(property "Value" "Kosmo_Jack_Hole"
		(at 0 11 0)
		(layer "F.Fab")
		(uuid "2724f4a3-a151-4f8e-ab74-bb16e69a92c4")
		(effects
			(font
				(size 1 1)
				(thickness 0.15)
			)
		)
	)
	(property "Footprint" ""
		(at 0 0 0)
		(layer "F.Fab")
		(hide yes)
		(uuid "63b1dfb1-3cdc-4f56-9997-520bd76975dc")
		(effects
			(font
				(size 1.27 1.27)
				(thickness 0.15)
			)
		)
	)
	(property "Datasheet" ""
		(at 0 0 0)
		(layer "F.Fab")
		(hide yes)
		(uuid "11ec6e8c-9d71-49b6-9ffe-6de5a1ed19f7")
		(effects
			(font
				(size 1.27 1.27)
				(thickness 0.15)
			)
		)
	)
	(property "Description" ""
		(at 0 0 0)
		(layer "F.Fab")
		(hide yes)
		(uuid "2f9aef43-b1ca-4764-b266-7e88524789e5")
		(effects
			(font
				(size 1.27 1.27)
				(thickness 0.15)
			)
		)
	)
	(attr exclude_from_pos_files exclude_from_bom)
	(fp_circle
		(center 0 0)
		(end 9.5 0)
		(stroke
			(width 0.15)
			(type solid)
		)
		(fill none)
		(layer "Cmts.User")
		(uuid "ef4af374-289a-4291-8010-13ed727e83ce")
	)
	(fp_circle
		(center 0 0)
		(end 4.9 0)
		(stroke
			(width 0.05)
			(type solid)
		)
		(fill none)
		(layer "Edge.Cuts")
		(uuid "fbf360b1-a5b6-4d61-b35c-c4aeceff68ce")
	)
	(fp_circle
		(center 0 0)
		(end 10 0)
		(stroke
			(width 0.05)
			(type solid)
		)
		(fill none)
		(layer "F.CrtYd")
		(uuid "816a792f-aa7d-45a3-a43e-567b2b5d1999")
	)
	(fp_text user "${REFERENCE}"
		(at 0.3 0 0)
		(layer "F.Fab")
		(uuid "c662e46f-de0d-45cd-bd33-e4a856851c54")
		(effects
			(font
				(size 1 1)
				(thickness 0.15)
			)
		)
	)
	(fp_text user "${REFERENCE}"
		(at 0.3 0 0)
		(layer "F.Fab")
		(uuid "eed5bfce-69dc-40dd-9fa1-2ca241897525")
		(effects
			(font
				(size 1 1)
				(thickness 0.15)
			)
		)
	)
	(pad "1" smd custom
		(at -6.1 0)
		(size 0.5 0.5)
		(layers "F.Cu" "F.Paste" "F.Mask")
		(zone_connect 2)
		(options
			(clearance outline)
			(anchor circle)
		)
		(primitives
			(gr_circle
				(center 6.1 0)
				(end 12.2 0)
				(width 1.9)
				(fill no)
			)
		)
		(uuid "62a121ad-33fd-42ac-a91f-94a60d92bc77")
	)
	(pad "1" smd custom
		(at -6.1 0)
		(size 0.5 0.5)
		(layers "B.Cu" "B.Paste" "B.Mask")
		(zone_connect 2)
		(options
			(clearance outline)
			(anchor circle)
		)
		(primitives
			(gr_circle
				(center 6.1 0)
				(end 12.2 0)
				(width 1.9)
				(fill no)
			)
		)
		(uuid "93e81415-adb8-4a7a-bd6f-847a4c9efd0c")
	)
	(pad "1" thru_hole circle
		(at -6.1 0)
		(size 0.8 0.8)
		(drill 0.6)
		(layers "*.Cu" "*.Mask")
		(remove_unused_layers no)
		(zone_connect 2)
		(uuid "a7c52597-14d0-4fb7-9fec-22e9c57e80fc")
	)
	(pad "1" thru_hole circle
		(at -4.3 -4.3)
		(size 0.8 0.8)
		(drill 0.6)
		(layers "*.Cu" "*.Mask")
		(remove_unused_layers no)
		(zone_connect 2)
		(uuid "32fa4883-bb65-4fb2-a49a-fe3c651de2c5")
	)
	(pad "1" thru_hole circle
		(at -4.3 4.3)
		(size 0.8 0.8)
		(drill 0.6)
		(layers "*.Cu" "*.Mask")
		(remove_unused_layers no)
		(zone_connect 2)
		(uuid "e7c3c878-e558-4e42-a770-f0a98b0dce6a")
	)
	(pad "1" thru_hole circle
		(at 0 -6.1)
		(size 0.8 0.8)
		(drill 0.6)
		(layers "*.Cu" "*.Mask")
		(remove_unused_layers no)
		(zone_connect 2)
		(uuid "4466edd3-6e5c-4d01-9402-ef487b4fe582")
	)
	(pad "1" thru_hole circle
		(at 0 6.1)
		(size 0.8 0.8)
		(drill 0.6)
		(layers "*.Cu" "*.Mask")
		(remove_unused_layers no)
		(zone_connect 2)
		(uuid "5b950e4b-844f-4b87-bb58-a83184f6ac4a")
	)
	(pad "1" thru_hole circle
		(at 4.2 4.4)
		(size 0.8 0.8)
		(drill 0.6)
		(layers "*.Cu" "*.Mask")
		(remove_unused_layers no)
		(zone_connect 2)
		(uuid "3239a51b-8d9d-4c5f-8275-fade38560f72")
	)
	(pad "1" thru_hole circle
		(at 4.3 -4.3)
		(size 0.8 0.8)
		(drill 0.6)
		(layers "*.Cu" "*.Mask")
		(remove_unused_layers no)
		(zone_connect 2)
		(uuid "edaee142-cf71-4a4d-83e8-6b75ddcf4c2d")
	)
	(pad "1" thru_hole circle
		(at 6.1 0)
		(size 0.8 0.8)
		(drill 0.6)
		(layers "*.Cu" "*.Mask")
		(remove_unused_layers no)
		(zone_connect 2)
		(uuid "76c2c901-3891-4d1c-8129-e2af31355cd1")
	)
	(model "${KICAD_USER_3DMODEL_DIR}/AO_tht_3d/User Library-jack-4.STEP"
		(hide yes)
		(offset
			(xyz 0 0 -2)
		)
		(scale
			(xyz 1 1 1)
		)
		(rotate
			(xyz 0 0 0)
		)
	)
	(model "${KICAD_USER_3DMODEL_DIR}/AO_tht_3d/Washer_H_jack_1-4_in.step"
		(hide yes)
		(offset
			(xyz -15 0 0)
		)
		(scale
			(xyz 1 1 1)
		)
		(rotate
			(xyz 0 0 0)
		)
	)
	(model "${KICAD_USER_3DMODEL_DIR}/AO_tht_3d/S1VS-FM6704.stp"
		(offset
			(xyz 0 0 -2.5)
		)
		(scale
			(xyz 1 1 1)
		)
		(rotate
			(xyz 0 0 0)
		)
	)
)
