(footprint "Kosmo_Panel_Slotted_Mounting_Hole" (version 20211014) (generator pcbnew)
  (layer "F.Cu")
  (tedit 5F6CB966)
  (descr "Mounting Hole 3.2mm, M3")
  (tags "mounting hole 3.2mm m3")
  (attr exclude_from_pos_files exclude_from_bom)
  (fp_text reference "REF**" (at 1.4 -4.2) (layer "F.SilkS") hide
    (effects (font (size 1 1) (thickness 0.15)))
    (tstamp b27e07f3-204a-4263-8c54-793bd71c83b3)
  )
  (fp_text value "Kosmo_Panel_Slotted_Mounting_Hole" (at 1.4 4.2) (layer "F.Fab")
    (effects (font (size 1 1) (thickness 0.15)))
    (tstamp f8fd315a-6e14-45f6-a1a3-d4ce43b840bd)
  )
  (fp_text user "${REFERENCE}" (at 1.7 0) (layer "F.Fab")
    (effects (font (size 1 1) (thickness 0.15)))
    (tstamp 05f97dff-0979-478e-9bf2-60699b065d5f)
  )
  (fp_line (start 0 3) (end 2.8 3) (layer "Cmts.User") (width 0.12) (tstamp 3b11bd15-6e7c-4965-8740-3ada99794e15))
  (fp_line (start 0 -3) (end 2.8 -3) (layer "Cmts.User") (width 0.12) (tstamp 476af300-df60-436c-9d57-7406976ffb47))
  (fp_arc (start 0 3) (mid -3 0) (end 0 -3) (layer "Cmts.User") (width 0.12) (tstamp a2f370d4-6dc6-416a-b2e2-3f58e090bb73))
  (fp_arc (start 2.8 -3) (mid 5.8 0) (end 2.8 3) (layer "Cmts.User") (width 0.12) (tstamp b5abf02d-e033-4e15-bc5f-692d43be1fd8))
  (fp_line (start 0 -3.25) (end 2.8 -3.25) (layer "F.CrtYd") (width 0.05) (tstamp 463f8ed4-4377-4235-8363-a2fc94f68299))
  (fp_line (start 0 3.25) (end 2.8 3.25) (layer "F.CrtYd") (width 0.05) (tstamp 95812f9a-99b7-4c4b-97c5-fdabc06f6b39))
  (fp_arc (start 2.8 -3.25) (mid 6.05 0) (end 2.8 3.25) (layer "F.CrtYd") (width 0.05) (tstamp 17cee1df-2d56-419c-aad5-721cb407f642))
  (fp_arc (start 0 3.25) (mid -3.25 0) (end 0 -3.25) (layer "F.CrtYd") (width 0.05) (tstamp 26870306-0ecf-413e-a989-69a7a5c83b7b))
  (pad "1" thru_hole oval (at 1.4 0) (size 6.8 4) (drill oval 6 3.2) (layers *.Cu *.Mask) (tstamp 415ab0f8-2178-429d-90fb-7a3e52fe28b3))
)
