(footprint "Kosmo_Rotary_Switch_Hole_23mm"
	(version 20240108)
	(generator "pcbnew")
	(generator_version "8.0")
	(layer "F.Cu")
	(descr "Alpha SR2611F-0112-(L)R0B-D8-N")
	(tags "Alpha SR2611F-0112-(L)R0B-D8-N")
	(property "Reference" "REF**"
		(at 0 -11 0)
		(layer "F.SilkS")
		(hide yes)
		(uuid "3b766674-618f-4e81-8c26-9d3b099313b8")
		(effects
			(font
				(size 1 1)
				(thickness 0.15)
			)
		)
	)
	(property "Value" "Kosmo_Rotary_Switch_Hole"
		(at 0 11 0)
		(layer "F.Fab")
		(uuid "93c1bcc0-95c1-4d00-953d-665dfeeffbcc")
		(effects
			(font
				(size 1 1)
				(thickness 0.15)
			)
		)
	)
	(property "Footprint" ""
		(at 0 0 0)
		(layer "F.Fab")
		(hide yes)
		(uuid "f9caac7a-8d6a-4bbc-9591-4b49c9427ef0")
		(effects
			(font
				(size 1.27 1.27)
				(thickness 0.15)
			)
		)
	)
	(property "Datasheet" ""
		(at 0 0 0)
		(layer "F.Fab")
		(hide yes)
		(uuid "807aa060-2cfb-4f3d-9c33-5c2ad45203ec")
		(effects
			(font
				(size 1.27 1.27)
				(thickness 0.15)
			)
		)
	)
	(property "Description" ""
		(at 0 0 0)
		(layer "F.Fab")
		(hide yes)
		(uuid "0ff00aa8-7be9-4d36-819c-6addb3dc8688")
		(effects
			(font
				(size 1.27 1.27)
				(thickness 0.15)
			)
		)
	)
	(attr exclude_from_pos_files exclude_from_bom)
	(fp_circle
		(center 0 0)
		(end 9.5 0)
		(stroke
			(width 0.15)
			(type solid)
		)
		(fill none)
		(layer "Cmts.User")
		(uuid "602237b9-1102-4e9f-b4f9-1af20b13306a")
	)
	(fp_circle
		(center 0 0)
		(end 4.9 0)
		(stroke
			(width 0.05)
			(type solid)
		)
		(fill none)
		(layer "Edge.Cuts")
		(uuid "42f8e8e5-2791-415e-ac5c-3a6ebeaceefd")
	)
	(fp_circle
		(center 0 0)
		(end 10 0)
		(stroke
			(width 0.05)
			(type solid)
		)
		(fill none)
		(layer "F.CrtYd")
		(uuid "92d7705c-afab-42d3-8199-271b8ae47c54")
	)
	(fp_text user "${REFERENCE}"
		(at 0.3 0 0)
		(layer "F.Fab")
		(uuid "90b5680a-ecb3-4de4-b21e-fff49fe5bf7d")
		(effects
			(font
				(size 1 1)
				(thickness 0.15)
			)
		)
	)
	(pad "1" smd custom
		(at -6.3 0)
		(size 0.5 0.5)
		(layers "F.Cu" "F.Paste" "F.Mask")
		(zone_connect 2)
		(thermal_bridge_angle 90)
		(options
			(clearance outline)
			(anchor circle)
		)
		(primitives
			(gr_circle
				(center 6.3 0)
				(end 12.6 0)
				(width 2.4)
				(fill no)
			)
		)
		(uuid "dc499057-474e-4585-9350-64cee221c04a")
	)
	(pad "1" smd custom
		(at -6.3 0)
		(size 0.5 0.5)
		(layers "B.Cu" "B.Paste" "B.Mask")
		(zone_connect 2)
		(thermal_bridge_angle 90)
		(options
			(clearance outline)
			(anchor circle)
		)
		(primitives
			(gr_circle
				(center 6.3 0)
				(end 12.6 0)
				(width 2.4)
				(fill no)
			)
		)
		(uuid "e4690e00-ca38-47c7-adcb-ab690290be7e")
	)
	(pad "1" thru_hole circle
		(at -6.3 0)
		(size 0.8 0.8)
		(drill 0.6)
		(layers "*.Mask" "F.Cu" "In1.Cu" "B.Cu")
		(remove_unused_layers no)
		(uuid "3cf310ba-4028-4bb4-b8c6-d5ca7b8206bf")
	)
	(pad "1" thru_hole circle
		(at -4.4 -4.4)
		(size 0.8 0.8)
		(drill 0.6)
		(layers "*.Mask" "F.Cu" "In1.Cu" "B.Cu")
		(remove_unused_layers no)
		(uuid "84e7962b-7da5-4e30-8b8b-62c68fa02e01")
	)
	(pad "1" thru_hole circle
		(at -4.4 4.4)
		(size 0.8 0.8)
		(drill 0.6)
		(layers "*.Mask" "F.Cu" "In1.Cu" "B.Cu")
		(remove_unused_layers no)
		(uuid "ef14444b-8d50-447c-bcb2-7df6f26cbd84")
	)
	(pad "1" thru_hole circle
		(at 0 -6.3)
		(size 0.8 0.8)
		(drill 0.6)
		(layers "*.Mask" "F.Cu" "In1.Cu" "B.Cu")
		(remove_unused_layers no)
		(uuid "2d2e2207-caa6-4bb5-a7ab-20510bbca92d")
	)
	(pad "1" thru_hole circle
		(at 0 6.3)
		(size 0.8 0.8)
		(drill 0.6)
		(layers "*.Mask" "F.Cu" "In1.Cu" "B.Cu")
		(remove_unused_layers no)
		(uuid "09209d38-09ad-42e5-b025-37cf7dde280f")
	)
	(pad "1" thru_hole circle
		(at 4.3 4.5)
		(size 0.8 0.8)
		(drill 0.6)
		(layers "*.Mask" "F.Cu" "In1.Cu" "B.Cu")
		(remove_unused_layers no)
		(uuid "e3defb82-48b8-4195-8160-af86a215506d")
	)
	(pad "1" thru_hole circle
		(at 4.4 -4.4)
		(size 0.8 0.8)
		(drill 0.6)
		(layers "*.Mask" "F.Cu" "In1.Cu" "B.Cu")
		(remove_unused_layers no)
		(uuid "74bd56da-1934-43fb-a2fe-91080e0e8088")
	)
	(pad "1" thru_hole circle
		(at 6.3 0)
		(size 0.8 0.8)
		(drill 0.6)
		(layers "*.Mask" "F.Cu" "In1.Cu" "B.Cu")
		(remove_unused_layers no)
		(uuid "f9399afe-ec4b-478f-a53a-ca259859b4f4")
	)
	(model "${KICAD_USER_3DMODEL_DIR}/AO_tht_3d/boss_knob.stp"
		(offset
			(xyz 0 0 0)
		)
		(scale
			(xyz 1.035 1.035 1)
		)
		(rotate
			(xyz 0 0 0)
		)
	)
)
