(footprint "Kosmo_Encoder_Hole_23mm"
	(version 20240108)
	(generator "pcbnew")
	(generator_version "8.0")
	(layer "F.Cu")
	(descr "Bourns PEC11R")
	(tags "Bourns PEC11R")
	(property "Reference" "REF**"
		(at 0 -7 0)
		(layer "F.SilkS")
		(hide yes)
		(uuid "bd6cb389-9dd3-4d02-a416-8ec213629112")
		(effects
			(font
				(size 1 1)
				(thickness 0.15)
			)
		)
	)
	(property "Value" "Kosmo_Encoder_Hole"
		(at 0 8.3 0)
		(layer "F.Fab")
		(uuid "ec4368a0-fed0-4140-bd17-03e3fc3d663a")
		(effects
			(font
				(size 1 1)
				(thickness 0.15)
			)
		)
	)
	(property "Footprint" ""
		(at 0 0 0)
		(layer "F.Fab")
		(hide yes)
		(uuid "3ed59e6f-bb7a-4df0-8e1a-d764c71ed2e2")
		(effects
			(font
				(size 1.27 1.27)
				(thickness 0.15)
			)
		)
	)
	(property "Datasheet" ""
		(at 0 0 0)
		(layer "F.Fab")
		(hide yes)
		(uuid "5671bafe-93ca-4ea8-aad4-ecf75daea5db")
		(effects
			(font
				(size 1.27 1.27)
				(thickness 0.15)
			)
		)
	)
	(property "Description" ""
		(at 0 0 0)
		(layer "F.Fab")
		(hide yes)
		(uuid "9bac29b6-0869-4c60-aa19-3ec2fbe67fe1")
		(effects
			(font
				(size 1.27 1.27)
				(thickness 0.15)
			)
		)
	)
	(attr exclude_from_pos_files exclude_from_bom)
	(fp_circle
		(center 0 0)
		(end 0.1 4.5)
		(stroke
			(width 0.1)
			(type solid)
		)
		(fill none)
		(layer "Dwgs.User")
		(uuid "dc8e7be6-827b-415b-aa90-dbfaf10c9ca8")
	)
	(fp_circle
		(center 0 0)
		(end 7 0)
		(stroke
			(width 0.15)
			(type solid)
		)
		(fill none)
		(layer "Cmts.User")
		(uuid "d0a3a97e-51e2-403d-af2d-c8233c12ddd4")
	)
	(fp_circle
		(center 0 0)
		(end 3.7 0)
		(stroke
			(width 0.05)
			(type solid)
		)
		(fill none)
		(layer "Edge.Cuts")
		(uuid "5bf4312b-4a13-4462-ada3-8a20deacdff2")
	)
	(fp_circle
		(center 0 0)
		(end 7.2 0)
		(stroke
			(width 0.05)
			(type solid)
		)
		(fill none)
		(layer "F.CrtYd")
		(uuid "232c6c16-3849-4d83-bbe0-27cd04234c1b")
	)
	(fp_text user "${REFERENCE}"
		(at 0.3 0 0)
		(layer "F.Fab")
		(uuid "c2b27afb-5fc4-4b83-8be6-d4f4b4b27dc9")
		(effects
			(font
				(size 1 1)
				(thickness 0.15)
			)
		)
	)
	(pad "1" smd custom
		(at -4.7 0)
		(size 0.5 0.5)
		(layers "F.Cu" "F.Paste" "F.Mask")
		(zone_connect 2)
		(thermal_bridge_angle 90)
		(options
			(clearance outline)
			(anchor circle)
		)
		(primitives
			(gr_circle
				(center 4.7 0)
				(end 9.4 0)
				(width 1.6)
				(fill no)
			)
		)
		(uuid "269b0e45-57e9-45b5-9a15-6214d04d7a52")
	)
	(pad "1" smd custom
		(at -4.7 0)
		(size 0.5 0.5)
		(layers "B.Cu" "B.Paste" "B.Mask")
		(zone_connect 2)
		(thermal_bridge_angle 90)
		(options
			(clearance outline)
			(anchor circle)
		)
		(primitives
			(gr_circle
				(center 4.7 0)
				(end 9.4 0)
				(width 1.6)
				(fill no)
			)
		)
		(uuid "dea52210-fbb6-4c82-9593-fd34eeda336c")
	)
	(pad "1" thru_hole circle
		(at -4.7 0)
		(size 0.8 0.8)
		(drill 0.6)
		(layers "*.Cu" "*.Mask")
		(remove_unused_layers no)
		(uuid "3079f2c0-c946-4c1e-83e3-e6dd682c2942")
	)
	(pad "1" thru_hole circle
		(at -3.3 -3.3)
		(size 0.8 0.8)
		(drill 0.6)
		(layers "*.Cu" "*.Mask")
		(remove_unused_layers no)
		(uuid "21ebeae4-6096-48e8-8e07-ea7007758090")
	)
	(pad "1" thru_hole circle
		(at -3.3 3.3)
		(size 0.8 0.8)
		(drill 0.6)
		(layers "*.Cu" "*.Mask")
		(remove_unused_layers no)
		(uuid "5cd071d2-708a-4473-ab39-1f32bbc7eb8a")
	)
	(pad "1" thru_hole circle
		(at 0 -4.7)
		(size 0.8 0.8)
		(drill 0.6)
		(layers "*.Cu" "*.Mask")
		(remove_unused_layers no)
		(uuid "316943e3-4fc7-4e80-9752-ab3be8a21d6f")
	)
	(pad "1" thru_hole circle
		(at 0 4.7)
		(size 0.8 0.8)
		(drill 0.6)
		(layers "*.Cu" "*.Mask")
		(remove_unused_layers no)
		(uuid "32e0961f-32cd-4758-9526-54aeaef8f414")
	)
	(pad "1" thru_hole circle
		(at 3.2 3.4)
		(size 0.8 0.8)
		(drill 0.6)
		(layers "*.Cu" "*.Mask")
		(remove_unused_layers no)
		(uuid "7d1f514f-e0c4-41e8-9fa7-201639d61e65")
	)
	(pad "1" thru_hole circle
		(at 3.3 -3.3)
		(size 0.8 0.8)
		(drill 0.6)
		(layers "*.Cu" "*.Mask")
		(remove_unused_layers no)
		(uuid "b3f8fe3f-70b8-4482-9511-a431b8d23182")
	)
	(pad "1" thru_hole circle
		(at 4.7 0)
		(size 0.8 0.8)
		(drill 0.6)
		(layers "*.Cu" "*.Mask")
		(remove_unused_layers no)
		(uuid "d38b2f54-7a55-4c00-a079-fbb5e3adc5ac")
	)
	(model "${KICAD_USER_3DMODEL_DIR}/AO_tht_3d/boss_knob.stp"
		(offset
			(xyz 0 0 0)
		)
		(scale
			(xyz 1.035 1.035 1)
		)
		(rotate
			(xyz 0 0 0)
		)
	)
)
